dump.vcd
$date
	Sun Oct  7 05:43:51 2018
$end
$version
	Icarus Verilog
$end
$timescale
	10ps
$end
$scope module test1 $end
$var wire 16 ! ACINBUS [15:0] $end
$var wire 8 " CIN [7:0] $end
$var wire 16 # DRINBUS [15:0] $end
$var wire 1 $ IENW $end
$var wire 1 % RW $end
$var wire 16 & TROUTBUS [15:0] $end
$var wire 1 ' pcLD $end
$var wire 1 ( pcINR $end
$var wire 1 ) pcCLR $end
$var wire 1 * irLD $end
$var wire 1 + arLD $end
$var wire 1 , arINR $end
$var wire 1 - arCLR $end
$var wire 1 . Write $end
$var wire 1 / SOUT $end
$var wire 3 0 SELECT [2:0] $end
$var wire 1 1 Read $end
$var wire 16 2 PCOUTBUS [15:0] $end
$var wire 16 3 MOUTBUS [15:0] $end
$var wire 16 4 MAINBUSO [15:0] $end
$var wire 16 5 MAINBUS [15:0] $end
$var wire 16 6 IROUTBUS [15:0] $end
$var wire 1 7 FGOW $end
$var wire 1 8 FGIW $end
$var wire 1 9 EOUT $end
$var wire 16 : DROUTBUS [15:0] $end
$var wire 8 ; COUT [7:0] $end
$var wire 16 < AROUTBUS [15:0] $end
$var wire 16 = ACOUTBUS [15:0] $end
$var reg 16 > AC [15:0] $end
$var reg 12 ? AR [11:0] $end
$var reg 16 @ DR [15:0] $end
$var reg 1 A E $end
$var reg 1 B FGI $end
$var reg 1 C FGO $end
$var reg 1 D IEN $end
$var reg 16 E IR [15:0] $end
$var reg 16 F PCR [15:0] $end
$var reg 1 G R $end
$var reg 1 H S $end
$var reg 1 I clk $end
$var integer 32 J i [31:0] $end
$scope module ar $end
$var wire 1 I clk $end
$var wire 16 K outAddr [15:0] $end
$var wire 12 L pcAddr [11:0] $end
$var wire 16 M inAddr [15:0] $end
$var wire 8 N count [7:0] $end
$var wire 1 + arLD $end
$var wire 1 , arINR $end
$var wire 1 - arCLR $end
$var wire 3 O SELECT [2:0] $end
$var reg 16 P AR [15:0] $end
$upscope $end
$scope module c $end
$var wire 16 Q DR [15:0] $end
$var wire 1 R I $end
$var wire 1 G R $end
$var wire 1 I clk $end
$var wire 3 S opcode [2:0] $end
$var wire 8 T out [7:0] $end
$var reg 26 U compare [25:0] $end
$var reg 8 V temp [7:0] $end
$upscope $end
$scope module ct $end
$var wire 16 W AC [15:0] $end
$var wire 16 X DR [15:0] $end
$var wire 1 A E $end
$var wire 1 B FGI $end
$var wire 1 8 FGIW $end
$var wire 1 C FGO $end
$var wire 1 7 FGOW $end
$var wire 1 Y IEN $end
$var wire 1 $ IENW $end
$var wire 16 Z IR [15:0] $end
$var wire 1 G R $end
$var wire 1 % RW $end
$var wire 1 1 Read $end
$var wire 1 . Write $end
$var wire 1 - arCLR $end
$var wire 1 , arINR $end
$var wire 1 + arLD $end
$var wire 1 I clk $end
$var wire 8 [ count [7:0] $end
$var wire 1 * irLD $end
$var wire 1 ) pcCLR $end
$var wire 1 ( pcINR $end
$var wire 1 ' pcLD $end
$var wire 3 \ SELECT [2:0] $end
$var reg 1 ] FGIw $end
$var reg 1 ^ FGOw $end
$var reg 1 _ IENw $end
$var reg 1 ` Rw $end
$var reg 1 a arCLr $end
$var reg 1 b arINr $end
$var reg 1 c arLd $end
$var reg 26 d compare [25:0] $end
$var reg 1 e irLd $end
$var reg 1 f mr $end
$var reg 1 g mw $end
$var reg 1 h pcCLr $end
$var reg 1 i pcINr $end
$var reg 1 j pcLd $end
$var reg 8 k timeTemp [7:0] $end
$upscope $end
$scope module decode $end
$var wire 16 l ACAddr [15:0] $end
$var wire 16 m ACAddrO [15:0] $end
$var wire 16 n DRAddr [15:0] $end
$var wire 16 o DRAddrO [15:0] $end
$var wire 1 A E $end
$var wire 1 9 EOUT $end
$var wire 1 $ IENW $end
$var wire 16 p IR [15:0] $end
$var wire 1 G R $end
$var wire 1 q WE $end
$var wire 1 . Write $end
$var wire 1 I clk $end
$var wire 8 r count [7:0] $end
$var wire 12 s sum [11:0] $end
$var wire 16 t shitfR [15:0] $end
$var wire 16 u shitfL [15:0] $end
$var wire 16 v NAC [15:0] $end
$var wire 16 w MAINBUSO [15:0] $end
$var wire 16 x MAINBUS [15:0] $end
$var wire 16 y ANR [15:0] $end
$var reg 16 z ACR [15:0] $end
$var reg 16 { DRR [15:0] $end
$var reg 1 | I $end
$var reg 1 } IEN $end
$var reg 26 ~ compare [25:0] $end
$var reg 1 !" e $end
$var reg 3 "" opcode [2:0] $end
$var reg 12 #" temp [11:0] $end
$scope module AD $end
$var wire 16 $" AC [15:0] $end
$var wire 16 %" DR [15:0] $end
$var wire 1 q outE $end
$var wire 13 &" sum [12:0] $end
$var wire 12 '" outSum [11:0] $end
$var wire 13 (" cout [12:0] $end
$var reg 1 )" cin $end
$scope module a0 $end
$var wire 1 *" A $end
$var wire 1 +" D $end
$var wire 1 )" cin $end
$var wire 1 ," sum $end
$var wire 1 -" cout $end
$upscope $end
$scope module a1 $end
$var wire 1 ." A $end
$var wire 1 /" D $end
$var wire 1 0" cin $end
$var wire 1 1" sum $end
$var wire 1 2" cout $end
$upscope $end
$scope module a10 $end
$var wire 1 3" A $end
$var wire 1 4" D $end
$var wire 1 5" cin $end
$var wire 1 6" sum $end
$var wire 1 7" cout $end
$upscope $end
$scope module a11 $end
$var wire 1 8" A $end
$var wire 1 9" D $end
$var wire 1 :" cin $end
$var wire 1 ;" sum $end
$var wire 1 <" cout $end
$upscope $end
$scope module a2 $end
$var wire 1 =" A $end
$var wire 1 >" D $end
$var wire 1 ?" cin $end
$var wire 1 @" sum $end
$var wire 1 A" cout $end
$upscope $end
$scope module a3 $end
$var wire 1 B" A $end
$var wire 1 C" D $end
$var wire 1 D" cin $end
$var wire 1 E" sum $end
$var wire 1 F" cout $end
$upscope $end
$scope module a4 $end
$var wire 1 G" A $end
$var wire 1 H" D $end
$var wire 1 I" cin $end
$var wire 1 J" sum $end
$var wire 1 K" cout $end
$upscope $end
$scope module a5 $end
$var wire 1 L" A $end
$var wire 1 M" D $end
$var wire 1 N" cin $end
$var wire 1 O" sum $end
$var wire 1 P" cout $end
$upscope $end
$scope module a6 $end
$var wire 1 Q" A $end
$var wire 1 R" D $end
$var wire 1 S" cin $end
$var wire 1 T" sum $end
$var wire 1 U" cout $end
$upscope $end
$scope module a7 $end
$var wire 1 V" A $end
$var wire 1 W" D $end
$var wire 1 X" cin $end
$var wire 1 Y" sum $end
$var wire 1 Z" cout $end
$upscope $end
$scope module a8 $end
$var wire 1 [" A $end
$var wire 1 \" D $end
$var wire 1 ]" cin $end
$var wire 1 ^" sum $end
$var wire 1 _" cout $end
$upscope $end
$scope module a9 $end
$var wire 1 `" A $end
$var wire 1 a" D $end
$var wire 1 b" cin $end
$var wire 1 c" sum $end
$var wire 1 d" cout $end
$upscope $end
$upscope $end
$scope module ad $end
$var wire 16 e" AC [15:0] $end
$var wire 16 f" DR [15:0] $end
$var wire 16 g" outAddr [15:0] $end
$upscope $end
$scope module com $end
$var wire 16 h" inAddr [15:0] $end
$var wire 1 A inE $end
$var wire 16 i" outAddr [15:0] $end
$var wire 1 q outE $end
$upscope $end
$scope module sl $end
$var wire 16 j" AC [15:0] $end
$var wire 1 A E $end
$var wire 1 q outE $end
$var wire 1 k" tempE $end
$var wire 17 l" temp [16:0] $end
$var wire 16 m" outAddr [15:0] $end
$upscope $end
$scope module sr $end
$var wire 16 n" AC [15:0] $end
$var wire 1 A E $end
$var wire 1 q outE $end
$var wire 1 o" tempE $end
$var wire 17 p" temp [16:0] $end
$var wire 16 q" outAddr [15:0] $end
$upscope $end
$upscope $end
$scope module ir $end
$var wire 1 I clk $end
$var wire 8 r" count [7:0] $end
$var wire 1 * irLD $end
$var wire 16 s" outAddr [15:0] $end
$var wire 16 t" inAddr [15:0] $end
$var wire 3 u" SELECT [2:0] $end
$var reg 16 v" IR [15:0] $end
$upscope $end
$scope module m $end
$var wire 16 w" ACOUTBUS [15:0] $end
$var wire 16 x" AROUTBUS [15:0] $end
$var wire 16 y" DROUTBUS [15:0] $end
$var wire 1 z" I $end
$var wire 16 {" IROUTBUS [15:0] $end
$var wire 1 G R $end
$var wire 3 |" SELECT [2:0] $end
$var wire 16 }" TROUTBUS [15:0] $end
$var wire 8 ~" count [7:0] $end
$var wire 12 !# ir [11:0] $end
$var wire 3 "# opcode [2:0] $end
$var wire 16 ## PCOUTBUS [15:0] $end
$var wire 16 $# MOUTBUS [15:0] $end
$var wire 16 %# MAINBUS [15:0] $end
$var reg 26 &# compare [25:0] $end
$var reg 3 '# temp [2:0] $end
$var reg 16 (# tempR [15:0] $end
$upscope $end
$scope module memory $end
$var wire 12 )# AR [11:0] $end
$var wire 1 I clk $end
$var wire 12 *# inAddr [11:0] $end
$var wire 16 +# outAddr [15:0] $end
$var wire 1 1 read $end
$var wire 1 . write $end
$var reg 16 ,# temp [15:0] $end
$upscope $end
$scope module pc $end
$var wire 1 ) CLR $end
$var wire 1 ( INR $end
$var wire 1 ' LD $end
$var wire 3 -# SELECT [2:0] $end
$var wire 1 I clk $end
$var wire 8 .# count [7:0] $end
$var wire 16 /# inAddr [15:0] $end
$var wire 16 0# outAddr [15:0] $end
$var reg 12 1# pc [11:0] $end
$upscope $end
$scope module s $end
$var wire 16 2# IR [15:0] $end
$var wire 1 G R $end
$var wire 1 I clk $end
$var wire 8 3# count [7:0] $end
$var wire 1 / outS $end
$var reg 26 4# compare [25:0] $end
$var reg 1 5# s $end
$upscope $end
$upscope $end
$enddefinitions $end
#0
$dumpvars
x5#
b0 4#
b0 3#
b0 2#
b0 1#
b0 0#
b0 /#
b0 .#
b10 -#
bx ,#
bx +#
b0 *#
bx )#
b0 (#
b10 '#
b0 &#
b0 %#
bx $#
b0 ##
b0 "#
b0 !#
b0 ~"
bz }"
b10 |"
bx {"
0z"
bx y"
bx x"
b0 w"
bx v"
b10 u"
bx t"
bx s"
b0 r"
b0 q"
b0 p"
0o"
b0 n"
b0 m"
b0 l"
0k"
b0 j"
b1111111111111111 i"
b0 h"
b0 g"
bx f"
b0 e"
xd"
xc"
xb"
0a"
x`"
x_"
x^"
x]"
0\"
x["
xZ"
xY"
xX"
0W"
xV"
xU"
xT"
xS"
0R"
xQ"
xP"
xO"
xN"
0M"
xL"
xK"
xJ"
xI"
0H"
xG"
xF"
xE"
xD"
0C"
xB"
xA"
x@"
x?"
0>"
x="
x<"
x;"
x:"
09"
x8"
x7"
x6"
x5"
04"
x3"
x2"
x1"
x0"
0/"
x."
x-"
x,"
0+"
x*"
0)"
bzxxxxxxxxxxxx ("
bx '"
bzxxxxxxxxxxxx &"
bx %"
b0 $"
bx #"
bx ""
x!"
bx ~
x}
x|
bx {
b0 z
b0 y
b0 x
bzxxxxxxxxxxxx w
b1111111111111111 v
b0 u
b0 t
bx s
b0 r
xq
b0 p
bx o
bz n
b0 m
bz l
b0 k
xj
xi
xh
xg
xf
xe
b0 d
1c
xb
xa
x`
x_
x^
x]
b10 \
b0 [
b0 Z
zY
bx X
bx W
b0 V
b0 U
b0 T
b0 S
0R
bx Q
bx P
b10 O
b0 N
b0 M
bz L
bx K
b1111101000 J
0I
xH
0G
bx F
b0 E
0D
xC
xB
0A
bx @
bx ?
bx >
b0 =
bx <
b0 ;
bx :
x9
x8
x7
bx 6
b0 5
bzxxxxxxxxxxxx 4
bx 3
b0 2
x1
b10 0
x/
x.
x-
x,
1+
x*
x)
x(
x'
bz &
x%
x$
bz #
b0 "
bz !
$end
#200
b0 <
b0 K
b0 x"
b0 P
#300
b0 ?
b0 )#
#500
b0 ~
b0 ""
0|
#1000
xD
xA
b0 >
b0 W
b0 F
1I
#1100
b1 k
bx *#
b1 2
b1 ##
b1 0#
b1 1#
bx 5
bx M
bx x
bx %#
bx (#
bx /#
b111 0
b111 O
b111 \
b111 u"
b111 |"
b111 -#
b111 '#
b1 U
0,
0b
0*
0e
0.
0g
11
1f
0-
0a
0+
0c
0'
0j
0)
0h
1(
1i
b1 d
b1 &#
b1000000000000 4#
b1 ;
b1 N
b1 T
b1 [
b1 r
b1 r"
b1 ~"
b1 .#
b1 3#
b1 V
#1400
b111 *#
b10000000000111 5
b10000000000111 M
b10000000000111 x
b10000000000111 %#
b10000000000111 (#
b10000000000111 /#
b10000000000111 3
b10000000000111 t"
b10000000000111 $#
b10000000000111 +#
b10000000000111 ,#
#1600
b1 ~
#2000
b1 F
0I
#2100
1*
1e
#2300
b10000000000111 6
b10000000000111 s"
b10000000000111 {"
b10000000000111 v"
#2400
b10 S
b10 "#
b111 !#
b10000000001000000000111 4#
b10000000000111 E
b10000000000111 Z
b10000000000111 p
b10000000000111 2#
#3000
1I
#3100
b10 k
b101 0
b101 O
b101 \
b101 u"
b101 |"
b101 -#
b101 '#
b10 U
1+
1c
0*
0e
01
0f
0(
0i
b10 d
b10 &#
b10000000010000000000111 4#
b10 ;
b10 N
b10 T
b10 [
b10 r
b10 r"
b10 ~"
b10 .#
b10 3#
b10 V
#3300
b10000000000111 <
b10000000000111 K
b10000000000111 x"
b10000000000111 P
#3400
b111 ?
b111 )#
#3600
b1000000010 ~
b10 ""
#4000
0I
#5000
1I
#5100
b11 k
b1000000011 U
0+
0c
b1000000011 d
b1000000011 &#
b10000000011000000000111 4#
b11 ;
b11 N
b11 T
b11 [
b11 r
b11 r"
b11 ~"
b11 .#
b11 3#
b11 V
#5600
b1000000011 ~
#6000
0I
#7000
1I
#7100
b100 k
b111 0
b111 O
b111 \
b111 u"
b111 |"
b111 -#
b111 '#
b1000000100 U
11
1f
b1000000100 d
b1000000100 &#
b10000000100000000000111 4#
b100 ;
b100 N
b100 T
b100 [
b100 r
b100 r"
b100 ~"
b100 .#
b100 3#
b100 V
#7400
b1010 *#
b1010 5
b1010 M
b1010 x
b1010 %#
b1010 (#
b1010 /#
b1010 3
b1010 t"
b1010 $#
b1010 +#
b1010 ,#
#7600
0;"
0<"
0:"
06"
07"
05"
0c"
0d"
0b"
0^"
0_"
0]"
0Y"
0Z"
0X"
0T"
0U"
0S"
0O"
0P"
0N"
0J"
0K"
0I"
1E"
0F"
0D"
0@"
0A"
0?"
11"
02"
b1010 s
b1010 '"
00"
bz000000001010 &"
0,"
bz000000000000 ("
0-"
0*"
1."
0="
1B"
0G"
0L"
0Q"
0V"
0["
0`"
03"
08"
b1010 :
b1010 o
b1010 y"
b1010 {
b1010 %"
b1010 f"
b1000000100 ~
#8000
b1010 @
b1010 Q
b1010 X
0I
#9000
1I
#9100
b101 k
b11 0
b11 O
b11 \
b11 u"
b11 |"
b11 -#
b11 '#
b1000000101 U
01
0f
b1000000101 d
b1000000101 &#
b10000000101000000000111 4#
b101 ;
b101 N
b101 T
b101 [
b101 r
b101 r"
b101 ~"
b101 .#
b101 3#
b101 V
#9600
1@"
1J"
1?"
b10100 s
b10100 '"
1I"
01"
12"
bz000000010100 &"
0E"
bz000000001010 ("
1F"
b1010 y
b1010 g"
b10100 u
b10100 m"
b101 t
b101 q"
1/"
1C"
b1111111111110101 v
b1111111111110101 i"
b10100 l"
b101 p"
b1010 =
b1010 m
b1010 w"
b1010 z
b1010 $"
b1010 e"
b1010 h"
b1010 j"
b1010 n"
b1000000101 ~
#10000
b1010 >
b1010 W
0I
#11000
1I
#11100
b0 k
b1 *#
b1 5
b1 M
b1 x
b1 %#
b1 (#
b1 /#
b10 0
b10 O
b10 \
b10 u"
b10 |"
b10 -#
b10 '#
b0 U
1+
1c
b0 d
b0 &#
b10000000000000000000111 4#
b0 ;
b0 N
b0 T
b0 [
b0 r
b0 r"
b0 ~"
b0 .#
b0 3#
b0 V
#11300
b1 <
b1 K
b1 x"
b1 P
#11400
b1 ?
b1 )#
#11600
b1000000000 ~
#12000
0I
#13000
1I
#13100
b1 k
b1010 *#
b10 2
b10 ##
b10 0#
b10 1#
b1010 5
b1010 M
b1010 x
b1010 %#
b1010 (#
b1010 /#
b111 0
b111 O
b111 \
b111 u"
b111 |"
b111 -#
b111 '#
b1 U
1(
1i
11
1f
0+
0c
b1 d
b1 &#
b10000000001000000000111 4#
b1 ;
b1 N
b1 T
b1 [
b1 r
b1 r"
b1 ~"
b1 .#
b1 3#
b1 V
#13400
b1001 *#
b101000000001001 5
b101000000001001 M
b101000000001001 x
b101000000001001 %#
b101000000001001 (#
b101000000001001 /#
b101000000001001 3
b101000000001001 t"
b101000000001001 $#
b101000000001001 +#
b101000000001001 ,#
#13600
b1000000001 ~
#14000
b10 F
0I
#14100
1*
1e
#14300
b101000000001001 6
b101000000001001 s"
b101000000001001 {"
b101000000001001 v"
#14400
b101 S
b101 "#
b1001 !#
b101000000001000000001001 4#
b101000000001001 E
b101000000001001 Z
b101000000001001 p
b101000000001001 2#
#15000
1I
#15100
b10 k
b101 0
b101 O
b101 \
b101 u"
b101 |"
b101 -#
b101 '#
b10 U
1+
1c
0*
0e
01
0f
0(
0i
b10 d
b10 &#
b101000000010000000001001 4#
b10 ;
b10 N
b10 T
b10 [
b10 r
b10 r"
b10 ~"
b10 .#
b10 3#
b10 V
#15300
b101000000001001 <
b101000000001001 K
b101000000001001 x"
b101000000001001 P
#15400
b1001 ?
b1001 )#
#15600
b10100000010 ~
b101 ""
#16000
0I
#17000
1I
#17100
b11 k
b10100000011 U
0+
0c
b10100000011 d
b10100000011 &#
b101000000011000000001001 4#
b11 ;
b11 N
b11 T
b11 [
b11 r
b11 r"
b11 ~"
b11 .#
b11 3#
b11 V
#17600
b10100000011 ~
#18000
0I
#19000
1I
#19100
b100 k
b10 *#
b10 5
b10 M
b10 x
b10 %#
b10 (#
b10 /#
b10 0
b10 O
b10 \
b10 u"
b10 |"
b10 -#
b10 '#
b10100000100 U
1.
1g
1,
1b
b10100000100 d
b10100000100 &#
b101000000100000000001001 4#
b100 ;
b100 N
b100 T
b100 [
b100 r
b100 r"
b100 ~"
b100 .#
b100 3#
b100 V
#19300
b101000000001010 <
b101000000001010 K
b101000000001010 x"
b101000000001010 P
#19400
b10 ?
b10 )#
b10 3
b10 t"
b10 $#
b10 +#
b10 ,#
#19600
b10100000100 ~
#20000
0I
#21000
1I
#21100
b101 k
b1010 *#
b1010 2
b1010 ##
b1010 0#
b1010 1#
b101000000001010 5
b101000000001010 M
b101000000001010 x
b101000000001010 %#
b101000000001010 (#
b101000000001010 /#
b1 0
b1 O
b1 \
b1 u"
b1 |"
b1 -#
b1 '#
b10100000101 U
1'
1j
0,
0b
0.
0g
b10100000101 d
b10100000101 &#
b101000000101000000001001 4#
b101 ;
b101 N
b101 T
b101 [
b101 r
b101 r"
b101 ~"
b101 .#
b101 3#
b101 V
#21400
b1010 F
#21600
b10100000101 ~
#22000
0I
#23000
1I
#23100
b0 k
b1010 5
b1010 M
b1010 x
b1010 %#
b1010 (#
b1010 /#
b10 0
b10 O
b10 \
b10 u"
b10 |"
b10 -#
b10 '#
b0 U
1+
1c
0'
0j
b0 d
b0 &#
b101000000000000000001001 4#
b0 ;
b0 N
b0 T
b0 [
b0 r
b0 r"
b0 ~"
b0 .#
b0 3#
b0 V
#23300
b1010 <
b1010 K
b1010 x"
b1010 P
#23400
b1010 ?
b1010 )#
#23600
b10100000000 ~
#24000
0I
#25000
1I
#25100
b1 k
b10 *#
b1011 2
b1011 ##
b1011 0#
b1011 1#
b10 5
b10 M
b10 x
b10 %#
b10 (#
b10 /#
b111 0
b111 O
b111 \
b111 u"
b111 |"
b111 -#
b111 '#
b1 U
1(
1i
11
1f
0+
0c
b1 d
b1 &#
b101000000001000000001001 4#
b1 ;
b1 N
b1 T
b1 [
b1 r
b1 r"
b1 ~"
b1 .#
b1 3#
b1 V
#25400
b1000000 *#
b111000001000000 5
b111000001000000 M
b111000001000000 x
b111000001000000 %#
b111000001000000 (#
b111000001000000 /#
b111000001000000 3
b111000001000000 t"
b111000001000000 $#
b111000001000000 +#
b111000001000000 ,#
#25600
b10100000001 ~
#26000
b1011 F
0I
#26100
1*
1e
#26300
b111000001000000 6
b111000001000000 s"
b111000001000000 {"
b111000001000000 v"
#26400
b111 S
b111 "#
b1000000 !#
b111000000001000001000000 4#
b111000001000000 E
b111000001000000 Z
b111000001000000 p
b111000001000000 2#
#27000
1I
#27100
b10 k
b101 0
b101 O
b101 \
b101 u"
b101 |"
b101 -#
b101 '#
b10 U
1+
1c
0*
0e
01
0f
0(
0i
b10 d
b10 &#
b111000000010000001000000 4#
b10 ;
b10 N
b10 T
b10 [
b10 r
b10 r"
b10 ~"
b10 .#
b10 3#
b10 V
#27300
b111000001000000 <
b111000001000000 K
b111000001000000 x"
b111000001000000 P
#27400
b1000000 ?
b1000000 )#
#27600
b111000000010000001000000 ~
b111 ""
#28000
0I
#29000
1I
#29100
b11 k
b11100000011 U
0+
0c
b111000000011000001000000 d
b11100000011 &#
b111000000011000001000000 4#
b11 ;
b11 N
b11 T
b11 [
b11 r
b11 r"
b11 ~"
b11 .#
b11 3#
b11 V
#29600
0O"
0?"
0D"
0I"
b11110 s
b11110 '"
0N"
11"
02"
1@"
0A"
1E"
0F"
bz000000011110 &"
1J"
bz000000000000 ("
0K"
b0 y
b0 g"
b101000 u
b101000 m"
b1010 t
b1010 q"
0/"
1>"
0C"
1H"
b1111111111101011 v
b1111111111101011 i"
b101000 l"
b1010 p"
b10100 =
b10100 m
b10100 w"
b10100 z
b10100 $"
b10100 e"
b10100 h"
b10100 j"
b10100 n"
b111000000011000001000000 ~
#30000
b10100 >
b10100 W
0I
#31000
1I
#31100
b0 k
b1011 *#
b1011 5
b1011 M
b1011 x
b1011 %#
b1011 (#
b1011 /#
b10 0
b10 O
b10 \
b10 u"
b10 |"
b10 -#
b10 '#
b0 U
1+
1c
b0 d
b0 &#
b111000000000000001000000 4#
b0 ;
b0 N
b0 T
b0 [
b0 r
b0 r"
b0 ~"
b0 .#
b0 3#
b0 V
#31300
b1011 <
b1011 K
b1011 x"
b1011 P
#31400
b1011 ?
b1011 )#
#31600
b111000000000000001000000 ~
#32000
0I
#33000
1I
#33100
b1 k
b1000000 *#
b1100 2
b1100 ##
b1100 0#
b1100 1#
b111000001000000 5
b111000001000000 M
b111000001000000 x
b111000001000000 %#
b111000001000000 (#
b111000001000000 /#
b111 0
b111 O
b111 \
b111 u"
b111 |"
b111 -#
b111 '#
b1 U
1(
1i
11
1f
0+
0c
b1 d
b1 &#
b111000000001000001000000 4#
b1 ;
b1 N
b1 T
b1 [
b1 r
b1 r"
b1 ~"
b1 .#
b1 3#
b1 V
#33600
b111000000001000001000000 ~
#34000
b1100 F
0I
#34100
1*
1e
#35000
1I
#35100
b10 k
b101 0
b101 O
b101 \
b101 u"
b101 |"
b101 -#
b101 '#
b10 U
1+
1c
0*
0e
01
0f
0(
0i
b10 d
b10 &#
b111000000010000001000000 4#
b10 ;
b10 N
b10 T
b10 [
b10 r
b10 r"
b10 ~"
b10 .#
b10 3#
b10 V
#35300
b111000001000000 <
b111000001000000 K
b111000001000000 x"
b111000001000000 P
#35400
b1000000 ?
b1000000 )#
#35600
b111000000010000001000000 ~
#36000
0I
#37000
1I
#37100
b11 k
b11100000011 U
0+
0c
b111000000011000001000000 d
b11100000011 &#
b111000000011000001000000 4#
b11 ;
b11 N
b11 T
b11 [
b11 r
b11 r"
b11 ~"
b11 .#
b11 3#
b11 V
#37600
1I"
b110010 s
b110010 '"
0@"
0E"
bz000000001000 ("
1F"
1J"
bz000000110010 &"
1O"
b1000 y
b1000 g"
b1010000 u
b1010000 m"
b10100 t
b10100 q"
0>"
1C"
0H"
1M"
b1111111111010111 v
b1111111111010111 i"
b1010000 l"
b10100 p"
b101000 =
b101000 m
b101000 w"
b101000 z
b101000 $"
b101000 e"
b101000 h"
b101000 j"
b101000 n"
b111000000011000001000000 ~
#38000
b101000 >
b101000 W
0I
#39000
1I
#39100
b0 k
b1100 *#
b1100 5
b1100 M
b1100 x
b1100 %#
b1100 (#
b1100 /#
b10 0
b10 O
b10 \
b10 u"
b10 |"
b10 -#
b10 '#
b0 U
1+
1c
b0 d
b0 &#
b111000000000000001000000 4#
b0 ;
b0 N
b0 T
b0 [
b0 r
b0 r"
b0 ~"
b0 .#
b0 3#
b0 V
#39300
b1100 <
b1100 K
b1100 x"
b1100 P
#39400
b1100 ?
b1100 )#
#39600
b111000000000000001000000 ~
#40000
0I
#41000
1I
#41100
b1 k
b1000000 *#
b1101 2
b1101 ##
b1101 0#
b1101 1#
b111000001000000 5
b111000001000000 M
b111000001000000 x
b111000001000000 %#
b111000001000000 (#
b111000001000000 /#
b111 0
b111 O
b111 \
b111 u"
b111 |"
b111 -#
b111 '#
b1 U
1(
1i
11
1f
0+
0c
b1 d
b1 &#
b111000000001000001000000 4#
b1 ;
b1 N
b1 T
b1 [
b1 r
b1 r"
b1 ~"
b1 .#
b1 3#
b1 V
#41600
b111000000001000001000000 ~
#42000
b1101 F
0I
#42100
1*
1e
#43000
1I
#43100
b10 k
b101 0
b101 O
b101 \
b101 u"
b101 |"
b101 -#
b101 '#
b10 U
1+
1c
0*
0e
01
0f
0(
0i
b10 d
b10 &#
b111000000010000001000000 4#
b10 ;
b10 N
b10 T
b10 [
b10 r
b10 r"
b10 ~"
b10 .#
b10 3#
b10 V
#43300
b111000001000000 <
b111000001000000 K
b111000001000000 x"
b111000001000000 P
#43400
b1000000 ?
b1000000 )#
#43600
b111000000010000001000000 ~
#44000
0I
#45000
1I
#45100
b11 k
b11100000011 U
0+
0c
b111000000011000001000000 d
b11100000011 &#
b111000000011000001000000 4#
b11 ;
b11 N
b11 T
b11 [
b11 r
b11 r"
b11 ~"
b11 .#
b11 3#
b11 V
#45600
0I"
0N"
b1011010 s
b1011010 '"
1E"
0F"
1J"
bz000000000000 ("
0K"
0O"
bz000001011010 &"
1T"
b0 y
b0 g"
b10100000 u
b10100000 m"
b101000 t
b101000 q"
0C"
1H"
0M"
1R"
b1111111110101111 v
b1111111110101111 i"
b10100000 l"
b101000 p"
b1010000 =
b1010000 m
b1010000 w"
b1010000 z
b1010000 $"
b1010000 e"
b1010000 h"
b1010000 j"
b1010000 n"
b111000000011000001000000 ~
#46000
b1010000 >
b1010000 W
0I
#47000
1I
#47100
b0 k
b1101 *#
b1101 5
b1101 M
b1101 x
b1101 %#
b1101 (#
b1101 /#
b10 0
b10 O
b10 \
b10 u"
b10 |"
b10 -#
b10 '#
b0 U
1+
1c
b0 d
b0 &#
b111000000000000001000000 4#
b0 ;
b0 N
b0 T
b0 [
b0 r
b0 r"
b0 ~"
b0 .#
b0 3#
b0 V
#47300
b1101 <
b1101 K
b1101 x"
b1101 P
#47400
b1101 ?
b1101 )#
#47600
b111000000000000001000000 ~
#48000
0I
#49000
1I
#49100
b1 k
b1000000 *#
b1110 2
b1110 ##
b1110 0#
b1110 1#
b111000001000000 5
b111000001000000 M
b111000001000000 x
b111000001000000 %#
b111000001000000 (#
b111000001000000 /#
b111 0
b111 O
b111 \
b111 u"
b111 |"
b111 -#
b111 '#
b1 U
1(
1i
11
1f
0+
0c
b1 d
b1 &#
b111000000001000001000000 4#
b1 ;
b1 N
b1 T
b1 [
b1 r
b1 r"
b1 ~"
b1 .#
b1 3#
b1 V
#49600
b111000000001000001000000 ~
#50000
b1110 F
0I
#50100
1*
1e
#51000
1I
#51100
b10 k
b101 0
b101 O
b101 \
b101 u"
b101 |"
b101 -#
b101 '#
b10 U
1+
1c
0*
0e
01
0f
0(
0i
b10 d
b10 &#
b111000000010000001000000 4#
b10 ;
b10 N
b10 T
b10 [
b10 r
b10 r"
b10 ~"
b10 .#
b10 3#
b10 V
#51300
b111000001000000 <
b111000001000000 K
b111000001000000 x"
b111000001000000 P
#51400
b1000000 ?
b1000000 )#
#51600
b111000000010000001000000 ~
#52000
0I
#53000
1I
#53100
b11 k
b11100000011 U
0+
0c
b111000000011000001000000 d
b11100000011 &#
b111000000011000001000000 4#
b11 ;
b11 N
b11 T
b11 [
b11 r
b11 r"
b11 ~"
b11 .#
b11 3#
b11 V
#53600
b10101010 s
b10101010 '"
0J"
1O"
0T"
bz000010101010 &"
1Y"
b101000000 u
b101000000 m"
b1010000 t
b1010000 q"
0H"
1M"
0R"
1W"
b1111111101011111 v
b1111111101011111 i"
b101000000 l"
b1010000 p"
b10100000 =
b10100000 m
b10100000 w"
b10100000 z
b10100000 $"
b10100000 e"
b10100000 h"
b10100000 j"
b10100000 n"
b111000000011000001000000 ~
#54000
b10100000 >
b10100000 W
0I
#55000
1I
#55100
b0 k
b1110 *#
b1110 5
b1110 M
b1110 x
b1110 %#
b1110 (#
b1110 /#
b10 0
b10 O
b10 \
b10 u"
b10 |"
b10 -#
b10 '#
b0 U
1+
1c
b0 d
b0 &#
b111000000000000001000000 4#
b0 ;
b0 N
b0 T
b0 [
b0 r
b0 r"
b0 ~"
b0 .#
b0 3#
b0 V
#55300
b1110 <
b1110 K
b1110 x"
b1110 P
#55400
b1110 ?
b1110 )#
#55600
b111000000000000001000000 ~
#56000
0I
#57000
1I
#57100
b1 k
b1000000 *#
b1111 2
b1111 ##
b1111 0#
b1111 1#
b111000001000000 5
b111000001000000 M
b111000001000000 x
b111000001000000 %#
b111000001000000 (#
b111000001000000 /#
b111 0
b111 O
b111 \
b111 u"
b111 |"
b111 -#
b111 '#
b1 U
1(
1i
11
1f
0+
0c
b1 d
b1 &#
b111000000001000001000000 4#
b1 ;
b1 N
b1 T
b1 [
b1 r
b1 r"
b1 ~"
b1 .#
b1 3#
b1 V
#57400
b10000 *#
b10000 5
b10000 M
b10000 x
b10000 %#
b10000 (#
b10000 /#
b10000 3
b10000 t"
b10000 $#
b10000 +#
b10000 ,#
#57600
b111000000001000001000000 ~
#58000
b1111 F
0I
#58100
1*
1e
#58300
b10000 6
b10000 s"
b10000 {"
b10000 v"
#58400
b0 S
b0 "#
b10000 !#
b1000000010000 4#
b10000 E
b10000 Z
b10000 p
b10000 2#
